…
To understand this visually, it may be easiest to think about a plot where we have facetted by a variable:


~~~
# A familiar dataset
datasaurus
~~~
{: .language-r}



~~~
# A tibble: 1,846 x 3
   dataset     x     y
     <dbl> <dbl> <dbl>
 1      13  55.4  97.2
 2      13  51.5  96.0
 3      13  46.2  94.5
 4      13  42.8  91.4
 5      13  40.8  88.3
 6      13  38.7  84.9
 7      13  35.6  79.9
 8      13  33.1  77.6
 9      13  29.0  74.5
10      13  26.2  71.4
# … with 1,836 more rows
…
